…
```r
covid %>% 
  group_by(country) %>% 
  arrange(desc(cumulative_cases))
```

```
## # A tibble: 96,222 x 8
## # Groups:   country [237]
##    date_reported country_code country      who_region new_cases cumulative_cases
##    <chr>         <chr>        <chr>        <chr>          <int>            <int>
##  1 2/11/2021     US           United Stat… AMRO           90930         26923756
##  2 2/10/2021     US           United Stat… AMRO           86449         26832826
##  3 2/9/2021      US           United Stat… AMRO           91412         26746377
##  4 2/8/2021      US           United Stat… AMRO          106988         26654965
##  5 2/7/2021      US           United Stat… AMRO          129961         26547977
##  6 2/6/2021      US           United Stat… AMRO          124866         26418016
##  7 2/5/2021      US           United Stat… AMRO          120876         26293150
##  8 2/4/2021      US           United Stat… AMRO          116762         26172274
##  9 2/3/2021      US           United Stat… AMRO          125444         26055512
## 10 2/2/2021      US           United Stat… AMRO          112129         25930068
## # … with 96,212 more rows, and 2 more variables: new_deaths <int>,
## #   cumulative_deaths <int>
```
…
