…
```r
covid %>% 
  group_by(country) %>% 
  arrange(desc(cumulative_cases))
```

```
## # A tibble: 96,222 x 8
## # Groups:   country [237]
##    date_reported country_code country who_region new_cases cumulative_cases
##    <chr>         <chr>        <chr>   <chr>          <int>            <int>
##  1 2021-02-11    US           United… AMRO           90930         26923756
##  2 2021-02-10    US           United… AMRO           86449         26832826
##  3 2021-02-09    US           United… AMRO           91412         26746377
##  4 2021-02-08    US           United… AMRO          106988         26654965
##  5 2021-02-07    US           United… AMRO          129961         26547977
##  6 2021-02-06    US           United… AMRO          124866         26418016
##  7 2021-02-05    US           United… AMRO          120876         26293150
##  8 2021-02-04    US           United… AMRO          116762         26172274
##  9 2021-02-03    US           United… AMRO          125444         26055512
## 10 2021-02-02    US           United… AMRO          112129         25930068
## # … with 96,212 more rows, and 2 more variables: new_deaths <int>,
## #   cumulative_deaths <int>
```
…
